Estimating the impact of COVID-19 on international tourism in Georgia
…
# Load data:
dat <- read_csv(here("/data/international_travelers_ge.csv"))

# Cleaning and other preparations:
dat <- dat %>% 
  mutate(ym = paste(year, month) %>% yearmonth(.)) %>% 
  as_tsibble(., index = ym) %>% 
  mutate(trips = trips / 100000, # express as 100K trips
         trips_log = log(trips)) %>% 
  dplyr::select(ym, trips, trips_log)

dat

## # A tsibble: 116 x 3 [1M]
##          ym trips trips_log
##       <mth> <dbl>     <dbl>
##  1 2011 Jan  1.98     0.684
##  2 2011 Feb  1.58     0.455
##  3 2011 Mar  2.10     0.742
##  4 2011 Apr  2.03     0.709
##  5 2011 May  2.28     0.826
##  6 2011 Jun  2.31     0.836
##  7 2011 Jul  3.19     1.16 
##  8 2011 Aug  4.21     1.44 
##  9 2011 Sep  3.28     1.19 
## 10 2011 Oct  2.87     1.06 
## # ... with 106 more rows
…
Data preparation

The following data on monthly volumes of foreign card transactions (thousands of Georgian Laris, GEL) were similarly downloaded from the official website of Georgian National Tourism Administration and then were re-formatted for easier analysis:

(cards <- read_csv("../data/card_operations.csv") %>% 
  pivot_longer(cols = y2007:y2020, names_to = "year", values_to = "volume") %>%
  mutate(year = gsub("y", "", year)) %>% 
  mutate(ym = paste(year, month) %>% yearmonth(.),
         volume_log = log(volume)) %>% 
  dplyr::select(ym, volume, volume_log) %>% 
  as_tsibble(., index = ym) %>% 
  filter(!is.na(volume)))

## # A tsibble: 158 x 3 [1M]
##          ym volume volume_log
##       <mth>  <dbl>      <dbl>
##  1 2007 Jan  11372       9.34
##  2 2007 Feb  11663       9.36
##  3 2007 Mar  14275       9.57
##  4 2007 Apr  16988       9.74
##  5 2007 May  19087       9.86
##  6 2007 Jun  18675       9.83
##  7 2007 Jul  30200      10.3 
##  8 2007 Aug  25665      10.2 
##  9 2007 Sep  27918      10.2 
## 10 2007 Oct  23389      10.1 
## # ... with 148 more rows
…
